{
  "rpo.lumi": "${Lumi} ${Lights}",
  "rpo.lumi.tonemap": "Tonemap mode",
  "rpo.lumi.tonemap.tooltip": "Tooltip test",
  "rpo.lumi.tonemap.default": "Default Tonemap",
  "rpo.lumi.tonemap.vibrant": "Vibrant Tonemap",
  "rpo.lumi.tonemap.film": "Filmic Tonemap",
  "rpo.lumi.pbr": "Enable PBR",
  "rpo.lumi.debugMode": "Debug Mode",
  "rpo.lumi.debugMode.normal": "${Normal} Mode",
  "rpo.lumi.waterVertexWavy": "Wavy water model",
  "rpo.lumi.subcategoryTest.sliderTest.tooltip": "Yayyy"
}